{
    "data": [
        {
            "id": 1,
            "title": "Концерт Depeche Mode",
            "description": "Описание концерта здесь",
            "price": 300,
            "type": "concert"
        },
        {
            "id": 2,
            "title": "Выставка Модильяни",
            "description": "Описание выставки здесь",
            "price": 200,
            "type": "exhibition"
        },
        {
            "id": 3,
          "title": "Мультимедийные выставки «Босх. Ожившие видения»",
            "description": "Картины двух самых загадочных художников в истории мирового искусства встретились в пространстве «Люмьер Холла»!",
            "price": 1500,
            "type": "exhibition"
        },
        {
            "id": 4,
            "title": "Концерт Rammstein",
            "description": "Напалмовое стадионное представление мастодонтов танцевального индастриала с презентацией первой студийной пластинки за декаду.",
            "price": 3000,
            "type": "concert"
        },
        {
            "id": 5,
            "title": "Акция «Поездка в зимнюю Карелию со скидкой 50%»",
            "description": "Хотите побывать в звенящей и мерцающей сказке?",
            "price": 200,
            "type": "exhibition"
        }
    ]
}
